^C:\USERS\SKY\DESKTOP\PROJELERIM\HUFFMANTREE\HUFFMAN\X64\DEBUG\SOURCE.OBJ
C:\USERS\SKY\DESKTOP\PROJELERIM\HUFFMANTREE\X64\DEBUG\HUFFMAN.ILK
C:\USERS\SKY\DESKTOP\PROJELERIM\HUFFMANTREE\X64\DEBUG\HUFFMAN.EXE
C:\USERS\SKY\DESKTOP\PROJELERIM\HUFFMANTREE\X64\DEBUG\HUFFMAN.PDB
