^C:\USERS\SKY\DESKTOP\PROJELERIM\HUFFMAN\HUFFMAN\X64\RELEASE\SOURCE.OBJ
C:\USERS\SKY\DESKTOP\PROJELERIM\HUFFMAN\X64\RELEASE\HUFFMAN.EXE
C:\USERS\SKY\DESKTOP\PROJELERIM\HUFFMAN\X64\RELEASE\HUFFMAN.PDB
